UN Votes
…
References

David Robinson (2017). unvotes: United Nations General Assembly Voting Data. R package version 0.2.0.

Erik Voeten “Data and Analyses of Voting in the UN General Assembly” Routledge Handbook of International Organization, edited by Bob Reinalda (published May 27, 2013).

Much of the analysis has been modeled on the examples presented in the unvotes package vignette.

Appendix

Below is a list of countries in the dataset:

# A tibble: 200 × 1
   country          
   <chr>            
 1 Afghanistan      
 2 Albania          
 3 Algeria          
 4 Andorra          
 5 Angola           
 6 Antigua & Barbuda
 7 Argentina        
 8 Armenia          
 9 Australia        
10 Austria          
# ℹ 190 more rows
