AE 06: Joining country populations with continents
…
Data

Countries and populations

These data come from The World Bank and reflect population counts as of 2022.

population <- read_csv("https://sta199-s24.github.io/data/world-pop-2022.csv")

Let’s take a look at the data.

population

# A tibble: 217 × 3
   country              year population
   <chr>               <dbl>      <dbl>
 1 Afghanistan          2022    41129. 
 2 Albania              2022     2778. 
 3 Algeria              2022    44903. 
 4 American Samoa       2022       44.3
 5 Andorra              2022       79.8
 6 Angola               2022    35589. 
 7 Antigua and Barbuda  2022       93.8
 8 Argentina            2022    46235. 
 9 Armenia              2022     2780. 
10 Aruba                2022      106. 
# ℹ 207 more rows

Continents

These data come from Our World in Data.

continents <- read_csv("https://sta199-s24.github.io/data/continents.csv")

Let’s take a look at the data.

continents

# A tibble: 285 × 4
   entity                code      year continent    
   <chr>                 <chr>    <dbl> <chr>        
 1 Abkhazia              OWID_ABK  2015 Asia         
 2 Afghanistan           AFG       2015 Asia         
 3 Akrotiri and Dhekelia OWID_AKD  2015 Asia         
 4 Aland Islands         ALA       2015 Europe       
 5 Albania               ALB       2015 Europe       
 6 Algeria               DZA       2015 Africa       
 7 American Samoa        ASM       2015 Oceania      
 8 Andorra               AND       2015 Europe       
 9 Angola                AGO       2015 Africa       
10 Anguilla              AIA       2015 North America
# ℹ 275 more rows
…
